<svg version="1.1" viewBox="0 0 607.95 692.6" xmlns="http://www.w3.org/2000/svg">
  <g transform="matrix(.98935 0 0 .98935 .010508 .25568)">
    <path d="m232.03 2.5205s0.94281 57.511 71.653 52.797c70.711-4.714 79.196-19.799 83.91-52.797m-155.56 0s102.26 3.7169 131.05 1.8856c31.284-1.9902 24.513-1.8856 24.513-1.8856s148.96 65.054 158.39 69.768c9.4281 4.714 28.284 23.57 47.14 102.77 18.856 79.196 18.856 84.853 18.856 84.853s-95.394 36.397-108.77 18.19c-15.949-21.716-14.19-30.722-14.19-30.722s-9.0376 149.24-9.9804 227.49 19.799 158.39 12.257 181.02c-7.5425 22.627-249.84 56.569-308.3 33.941-58.454-22.627-55.626-20.742-55.626-20.742s2.8284-64.111 6.5997-146.14c3.7712-82.024-4.714-230.99-11.314-244.19s-4.8284-13.266-4.8284-13.266 10.485 33.065-34.77 23.637c-45.255-9.4281-80.139-35.827-80.139-35.827s56.569-172.53 72.596-181.96 120.68-51.854 156.51-68.825z" stroke="#000" stroke-width="5"/>
    <path d="m209.33 171.13-21.333 1.3333 2.6667 169.33 24.667-2" fill="none" stroke="#fff" stroke-width="3"/>
    <path d="m401.25 167.06 21.375 0.0918 7.1746 169.2-24.741-0.5637" fill="none" stroke="#fff" stroke-width="3"/>
    <g transform="rotate(-2.733,15.673,360.29)" fill="#fff" aria-label="1 2 3 4">
      <path d="m209.81 202.06 4.9067-1.1733v25.44h-4.32c-2.4533 0-3.5733 0.10666-3.5733 1.8133 0 1.2267 0.69333 1.8667 2.08 1.8667h15.573c1.3867 0 2.08-0.64 2.08-1.8667 0-1.7067-1.12-1.8133-3.5733-1.8133h-4.16v-28.16c0-1.0667-0.42667-1.7067-1.0667-1.7067-0.32 0-0.69333 0.0533-1.12 0.16l-7.7333 2.08c-1.12 0.32-1.7067 0.96-1.7067 1.8133 0 0.96 0.69333 1.6533 1.8133 1.6533 0.26667 0 0.53334-0.0533 0.8-0.10667z"/>
      <path d="m271.15 230.01h17.173c0.8 0 1.3867-0.58667 1.4933-1.7067l0.26666-2.0267c0-0.16 0.0533-0.37333 0.0533-0.53333 0-1.3867-0.74667-2.1333-1.8667-2.1333s-1.8133 0.74666-1.9733 2.2933h-11.893l3.2-3.0933c6.7733-6.72 12.32-10.667 12.32-16.853 0-5.44-4.32-9.6533-10.133-9.6533-3.52 0-6.9867 1.3867-9.1733 3.52-0.8 0.8-0.85334 1.28-0.85334 2.2933 0 1.8133 0.26667 2.72 1.5467 2.72 1.8133 0 2.1867-1.5467 2.8267-2.4 1.1733-1.5467 3.36-2.5067 5.5467-2.5067 3.36 0 5.7067 2.5067 5.7067 6.24 0 4.3733-4.3733 8-11.2 14.453-3.68 3.52-5.76 5.28-5.76 7.0933 0 1.6 0.90667 2.2933 2.72 2.2933z"/>
      <path d="m348.44 212.09c3.6267-1.28 5.28-3.6267 5.28-7.2533 0-4.64-3.84-8.5333-9.44-8.5333-5.28 0-9.3867 2.9867-9.3867 4.7467 0 0.96 0.74666 1.6533 1.7067 1.6533 1.6 0 3.5733-2.7733 7.4133-2.7733 3.0933 0 5.3867 2.2933 5.3867 5.6533 0 2.56-1.8133 4.5333-4.5333 4.96s-3.52 0.0533-3.52 1.9733c0 2.2933 1.3867 1.5467 4.0533 2.0267 3.1467 0.58667 5.0133 2.88 5.0133 5.9733 0 3.68-2.7733 6.3467-6.9867 6.3467-4.16 0-6.8267-2.6667-8.3733-2.6667-1.0667 0-1.92 0.74667-1.92 1.8133 0 2.3467 4.5867 4.8533 10.133 4.8533 6.9867 0 11.573-4.4267 11.573-10.347 0-4.2133-2.2933-7.3067-6.4-8.4267z"/>
      <path d="m407.91 230.01h8.4267c1.3867 0 2.08-0.64 2.08-1.8667 0-1.44-0.85333-1.8133-2.9333-1.8133h-0.90667v-4.3733h2.1867c1.12 0 1.44-0.48 1.6533-1.6l0.21333-1.0667c0.10667-0.42667 0.10667-0.74667 0.10667-0.90667 0-0.74667-0.53333-1.28-1.2267-1.28-0.85333 0-0.53333 0.90667-1.6 0.90667h-1.3333v-19.787c0-0.8-0.26667-1.2267-0.8-1.3333l-2.6667-0.42667c-0.26666-0.0533-0.48-0.0533-0.69333-0.0533-0.58667 0-0.85333 0.21333-1.28 0.96l-10.987 18.667c-0.42666 0.69334-0.96 1.28-0.96 2.5067v1.8133c0 1.0667 0.53334 1.6 1.3867 1.6h12.16v4.3733h-3.04c-1.3333 0-1.92 0.53333-1.92 1.8133 0 1.4933 0.58667 1.8667 2.1333 1.8667zm2.8267-12h-9.8667l9.8667-17.653z"/>
    </g>
    <text x="360" y="213.1255" fill="#000000" font-family="sans-serif" font-size="40px" letter-spacing="0px" word-spacing="0px" style="line-height:1.25" xml:space="preserve"><tspan x="360" y="213.1255">  </tspan></text>
    <text x="229.33333" y="218.45885" fill="#000000" font-family="sans-serif" font-size="40px" letter-spacing="0px" word-spacing="0px" style="line-height:1.25" xml:space="preserve"><tspan x="229.33333" y="218.45885">  </tspan></text>
    <g transform="rotate(-2.4523,2398,336.12)" fill="#fff" aria-label="1 2 3 4">
      <path d="m209.81 202.06 4.9067-1.1733v25.44h-4.32c-2.4533 0-3.5733 0.10666-3.5733 1.8133 0 1.2267 0.69333 1.8667 2.08 1.8667h15.573c1.3867 0 2.08-0.64 2.08-1.8667 0-1.7067-1.12-1.8133-3.5733-1.8133h-4.16v-28.16c0-1.0667-0.42667-1.7067-1.0667-1.7067-0.32 0-0.69333 0.0533-1.12 0.16l-7.7333 2.08c-1.12 0.32-1.7067 0.96-1.7067 1.8133 0 0.96 0.69333 1.6533 1.8133 1.6533 0.26667 0 0.53334-0.0533 0.8-0.10667z"/>
      <path d="m271.15 230.01h17.173c0.8 0 1.3867-0.58667 1.4933-1.7067l0.26666-2.0267c0-0.16 0.0533-0.37333 0.0533-0.53333 0-1.3867-0.74667-2.1333-1.8667-2.1333s-1.8133 0.74666-1.9733 2.2933h-11.893l3.2-3.0933c6.7733-6.72 12.32-10.667 12.32-16.853 0-5.44-4.32-9.6533-10.133-9.6533-3.52 0-6.9867 1.3867-9.1733 3.52-0.8 0.8-0.85334 1.28-0.85334 2.2933 0 1.8133 0.26667 2.72 1.5467 2.72 1.8133 0 2.1867-1.5467 2.8267-2.4 1.1733-1.5467 3.36-2.5067 5.5467-2.5067 3.36 0 5.7067 2.5067 5.7067 6.24 0 4.3733-4.3733 8-11.2 14.453-3.68 3.52-5.76 5.28-5.76 7.0933 0 1.6 0.90667 2.2933 2.72 2.2933z"/>
      <path d="m348.44 212.09c3.6267-1.28 5.28-3.6267 5.28-7.2533 0-4.64-3.84-8.5333-9.44-8.5333-5.28 0-9.3867 2.9867-9.3867 4.7467 0 0.96 0.74666 1.6533 1.7067 1.6533 1.6 0 3.5733-2.7733 7.4133-2.7733 3.0933 0 5.3867 2.2933 5.3867 5.6533 0 2.56-1.8133 4.5333-4.5333 4.96s-3.52 0.0533-3.52 1.9733c0 2.2933 1.3867 1.5467 4.0533 2.0267 3.1467 0.58667 5.0133 2.88 5.0133 5.9733 0 3.68-2.7733 6.3467-6.9867 6.3467-4.16 0-6.8267-2.6667-8.3733-2.6667-1.0667 0-1.92 0.74667-1.92 1.8133 0 2.3467 4.5867 4.8533 10.133 4.8533 6.9867 0 11.573-4.4267 11.573-10.347 0-4.2133-2.2933-7.3067-6.4-8.4267z"/>
      <path d="m407.91 230.01h8.4267c1.3867 0 2.08-0.64 2.08-1.8667 0-1.44-0.85333-1.8133-2.9333-1.8133h-0.90667v-4.3733h2.1867c1.12 0 1.44-0.48 1.6533-1.6l0.21333-1.0667c0.10667-0.42667 0.10667-0.74667 0.10667-0.90667 0-0.74667-0.53333-1.28-1.2267-1.28-0.85333 0-0.53333 0.90667-1.6 0.90667h-1.3333v-19.787c0-0.8-0.26667-1.2267-0.8-1.3333l-2.6667-0.42667c-0.26666-0.0533-0.48-0.0533-0.69333-0.0533-0.58667 0-0.85333 0.21333-1.28 0.96l-10.987 18.667c-0.42666 0.69334-0.96 1.28-0.96 2.5067v1.8133c0 1.0667 0.53334 1.6 1.3867 1.6h12.16v4.3733h-3.04c-1.3333 0-1.92 0.53333-1.92 1.8133 0 1.4933 0.58667 1.8667 2.1333 1.8667zm2.8267-12h-9.8667l9.8667-17.653z"/>
    </g>
    <g transform="rotate(-4.3462,803.38,267.24)" fill="#fff" aria-label="1 2 3 4">
      <path d="m209.81 202.06 4.9067-1.1733v25.44h-4.32c-2.4533 0-3.5733 0.10666-3.5733 1.8133 0 1.2267 0.69333 1.8667 2.08 1.8667h15.573c1.3867 0 2.08-0.64 2.08-1.8667 0-1.7067-1.12-1.8133-3.5733-1.8133h-4.16v-28.16c0-1.0667-0.42667-1.7067-1.0667-1.7067-0.32 0-0.69333 0.0533-1.12 0.16l-7.7333 2.08c-1.12 0.32-1.7067 0.96-1.7067 1.8133 0 0.96 0.69333 1.6533 1.8133 1.6533 0.26667 0 0.53334-0.0533 0.8-0.10667z"/>
      <path d="m271.15 230.01h17.173c0.8 0 1.3867-0.58667 1.4933-1.7067l0.26666-2.0267c0-0.16 0.0533-0.37333 0.0533-0.53333 0-1.3867-0.74667-2.1333-1.8667-2.1333s-1.8133 0.74666-1.9733 2.2933h-11.893l3.2-3.0933c6.7733-6.72 12.32-10.667 12.32-16.853 0-5.44-4.32-9.6533-10.133-9.6533-3.52 0-6.9867 1.3867-9.1733 3.52-0.8 0.8-0.85334 1.28-0.85334 2.2933 0 1.8133 0.26667 2.72 1.5467 2.72 1.8133 0 2.1867-1.5467 2.8267-2.4 1.1733-1.5467 3.36-2.5067 5.5467-2.5067 3.36 0 5.7067 2.5067 5.7067 6.24 0 4.3733-4.3733 8-11.2 14.453-3.68 3.52-5.76 5.28-5.76 7.0933 0 1.6 0.90667 2.2933 2.72 2.2933z"/>
      <path d="m348.44 212.09c3.6267-1.28 5.28-3.6267 5.28-7.2533 0-4.64-3.84-8.5333-9.44-8.5333-5.28 0-9.3867 2.9867-9.3867 4.7467 0 0.96 0.74666 1.6533 1.7067 1.6533 1.6 0 3.5733-2.7733 7.4133-2.7733 3.0933 0 5.3867 2.2933 5.3867 5.6533 0 2.56-1.8133 4.5333-4.5333 4.96s-3.52 0.0533-3.52 1.9733c0 2.2933 1.3867 1.5467 4.0533 2.0267 3.1467 0.58667 5.0133 2.88 5.0133 5.9733 0 3.68-2.7733 6.3467-6.9867 6.3467-4.16 0-6.8267-2.6667-8.3733-2.6667-1.0667 0-1.92 0.74667-1.92 1.8133 0 2.3467 4.5867 4.8533 10.133 4.8533 6.9867 0 11.573-4.4267 11.573-10.347 0-4.2133-2.2933-7.3067-6.4-8.4267z"/>
      <path d="m407.91 230.01h8.4267c1.3867 0 2.08-0.64 2.08-1.8667 0-1.44-0.85333-1.8133-2.9333-1.8133h-0.90667v-4.3733h2.1867c1.12 0 1.44-0.48 1.6533-1.6l0.21333-1.0667c0.10667-0.42667 0.10667-0.74667 0.10667-0.90667 0-0.74667-0.53333-1.28-1.2267-1.28-0.85333 0-0.53333 0.90667-1.6 0.90667h-1.3333v-19.787c0-0.8-0.26667-1.2267-0.8-1.3333l-2.6667-0.42667c-0.26666-0.0533-0.48-0.0533-0.69333-0.0533-0.58667 0-0.85333 0.21333-1.28 0.96l-10.987 18.667c-0.42666 0.69334-0.96 1.28-0.96 2.5067v1.8133c0 1.0667 0.53334 1.6 1.3867 1.6h12.16v4.3733h-3.04c-1.3333 0-1.92 0.53333-1.92 1.8133 0 1.4933 0.58667 1.8667 2.1333 1.8667zm2.8267-12h-9.8667l9.8667-17.653z"/>
    </g>
  </g>
</svg>
